<?xml version="1.0" encoding="UTF-8"?>
<testng-results skipped="0" failed="0" total="2" passed="2">
  <reporter-output>
  </reporter-output>
  <suite name="com.ActiTime.www.AppTest" duration-ms="13503" started-at="2018-06-03T15:19:46Z" finished-at="2018-06-03T15:20:00Z">
    <groups>
      <group name="Regression">
        <method signature="AppTest.maximizeActiTimeApp()[pri:0, instance:com.ActiTime.www.AppTest@77b52d12]" name="maximizeActiTimeApp" class="com.ActiTime.www.AppTest"/>
      </group> <!-- Regression -->
      <group name="Smoke">
        <method signature="AppTest.openActiTimeApp()[pri:0, instance:com.ActiTime.www.AppTest@77b52d12]" name="openActiTimeApp" class="com.ActiTime.www.AppTest"/>
      </group> <!-- Smoke -->
    </groups>
    <test name="Command line test" duration-ms="13503" started-at="2018-06-03T15:19:46Z" finished-at="2018-06-03T15:20:00Z">
      <class name="com.ActiTime.www.AppTest">
        <test-method status="PASS" signature="beforeEach()[pri:0, instance:com.ActiTime.www.AppTest@77b52d12]" name="beforeEach" is-config="true" duration-ms="3184" started-at="2018-06-03T11:19:46Z" finished-at="2018-06-03T11:19:49Z">
          <reporter-output>
          </reporter-output>
        </test-method> <!-- beforeEach -->
        <test-method status="PASS" signature="openActiTimeApp()[pri:0, instance:com.ActiTime.www.AppTest@77b52d12]" name="openActiTimeApp" duration-ms="3022" started-at="2018-06-03T11:19:49Z" finished-at="2018-06-03T11:19:52Z">
          <reporter-output>
          </reporter-output>
        </test-method> <!-- openActiTimeApp -->
        <test-method status="PASS" signature="afterEach()[pri:0, instance:com.ActiTime.www.AppTest@77b52d12]" name="afterEach" is-config="true" duration-ms="611" started-at="2018-06-03T11:19:52Z" finished-at="2018-06-03T11:19:53Z">
          <reporter-output>
          </reporter-output>
        </test-method> <!-- afterEach -->
        <test-method status="PASS" signature="beforeEach()[pri:0, instance:com.ActiTime.www.AppTest@77b52d12]" name="beforeEach" is-config="true" duration-ms="1964" started-at="2018-06-03T11:19:53Z" finished-at="2018-06-03T11:19:55Z">
          <reporter-output>
          </reporter-output>
        </test-method> <!-- beforeEach -->
        <test-method status="PASS" signature="maximizeActiTimeApp()[pri:0, instance:com.ActiTime.www.AppTest@77b52d12]" name="maximizeActiTimeApp" duration-ms="4101" started-at="2018-06-03T11:19:55Z" finished-at="2018-06-03T11:19:59Z">
          <reporter-output>
          </reporter-output>
        </test-method> <!-- maximizeActiTimeApp -->
        <test-method status="PASS" signature="afterEach()[pri:0, instance:com.ActiTime.www.AppTest@77b52d12]" name="afterEach" is-config="true" duration-ms="599" started-at="2018-06-03T11:19:59Z" finished-at="2018-06-03T11:20:00Z">
          <reporter-output>
          </reporter-output>
        </test-method> <!-- afterEach -->
      </class> <!-- com.ActiTime.www.AppTest -->
    </test> <!-- Command line test -->
  </suite> <!-- com.ActiTime.www.AppTest -->
</testng-results>
