C:\Users\HP\eclipse-workspace\ActiTime\src\test\java\com\ActiTime\www\Login.java
C:\Users\HP\eclipse-workspace\ActiTime\src\test\java\com\ActiTime\www\AppTest.java
C:\Users\HP\eclipse-workspace\ActiTime\src\test\java\com\ActiTime\www\SampleTest.java
